weather_and_xml
…
my_temperature

  [1] 67 67 68 68 68 69 69 70 70 69 69 69 69 69 69 69 70 70 70 69 69 69 68 68 67
 [26] 67 68 69 70 71 72 72 72 72 72 72 72 72 72 72 73 74 75 75 74 74 73 72 72 72
 [51] 72 72 72 72 72 72 72 72 72 72 72 72 72 72 73 74 75 75 75 74 74 74 74 74 74
 [76] 74 74 74 73 73 73 73 73 73 72 72 72 73 74 75 75 75 75 74 74 74 73 73 73 73
[101] 73 73 73 73 73 72 72 72 71 71 71 72 73 74 74 74 73 73 72 72 73 73 73 73 73
[126] 73 72 72 72 71 71 70 70 69 68 68 68 68 69 69 69 69 69 68 68 67 67 68 68 68
[151] 68 68 68 68 68 68 67 67 67 67 68 69 70 70 70 69 69 69

tibble(my_temperature)

# A tibble: 168 × 1
   my_temperature
            <int>
 1             67
 2             67
 3             68
 4             68
 5             68
 6             69
 7             69
 8             70
 9             70
10             69
# ℹ 158 more rows
…
temp <- my_df %>% 
  xml_find_all("//temperature[@type='hourly']") %>% 
  xml_children() %>% 
  xml_integer()

my_weather_summary <- tibble(date_time = force_tz(ymd_hms(start_time), 
                                                  tzone = "America/New_York")
                              %m-% hours(4), 
                             temp, heat_index, 
                             rain_chance, dew_point) 
my_weather_summary

# A tibble: 168 × 5
   date_time            temp heat_index rain_chance dew_point
   <dttm>              <int>      <int>       <int>     <int>
 1 2023-07-25 16:00:00    91         94          15        67
 2 2023-07-25 17:00:00    91         94          15        67
 3 2023-07-25 18:00:00    89         93          13        68
 4 2023-07-25 19:00:00    87         91          12        68
 5 2023-07-25 20:00:00    84         87          16        68
 6 2023-07-25 21:00:00    81         84          19        69
 7 2023-07-25 22:00:00    79         79          15        69
 8 2023-07-25 23:00:00    77         77          14        70
 9 2023-07-26 00:00:00    76         76          13        70
10 2023-07-26 01:00:00    75         75          10        69
# ℹ 158 more rows
…
my_json <- fromJSON("https://api.weather.gov/gridpoints/RAH/64,68/forecast/hourly?units=us")  

# fromJSON("https://api.weather.gov/gridpoints/RAH/63,68/forecast/hourly?units=us")  

my_dew_df <- my_json$properties$periods$dewpoint |> 
  janitor::clean_names() |> 
  as_tibble() |> 
  rename(dew_unit_code = unit_code) |> 
  rename(dew_point = value) |> 
  mutate(dew_point_F = (dew_point * 1.8 + 32))  # °C × 9/5) + 32

my_dew_df

# A tibble: 156 × 3
   dew_unit_code dew_point dew_point_F
   <chr>             <dbl>       <dbl>
 1 wmoUnit:degC       19.4          67
 2 wmoUnit:degC       19.4          67
 3 wmoUnit:degC       19.4          67
 4 wmoUnit:degC       19.4          67
 5 wmoUnit:degC       20            68
 6 wmoUnit:degC       20.6          69
 7 wmoUnit:degC       20.6          69
 8 wmoUnit:degC       20.6          69
 9 wmoUnit:degC       20.6          69
10 wmoUnit:degC       20.6          69
# ℹ 146 more rows

my_precip_df <- my_json$properties$periods$probabilityOfPrecipitation |> 
  janitor::clean_names() |> 
  as_tibble() |> 
  rename(precip_unit = unit_code) |> 
  rename(precip = value)

my_precip_df

# A tibble: 156 × 2
   precip_unit     precip
   <chr>            <int>
 1 wmoUnit:percent     15
 2 wmoUnit:percent     15
 3 wmoUnit:percent     13
 4 wmoUnit:percent     13
 5 wmoUnit:percent     16
 6 wmoUnit:percent     20
 7 wmoUnit:percent     15
 8 wmoUnit:percent     14
 9 wmoUnit:percent     12
10 wmoUnit:percent     10
# ℹ 146 more rows

temp_df <- my_json$properties$periods[c("startTime", "temperature", "temperatureUnit")] |> 
  as_tibble() |> 
  janitor::clean_names() |> 
  mutate(start_time = force_tz(ymd_hms(start_time), 
                               tzone = "America/New_York")
         %m-% hours(4))
  # mutate(start_time = lubridate::ymd_hms(start_time))

temp_df |> 
  bind_cols(my_dew_df) |> 
  bind_cols(my_precip_df)

# A tibble: 156 × 8
   start_time          temperature temperature_unit dew_unit_code dew_point
   <dttm>                    <int> <chr>            <chr>             <dbl>
 1 2023-07-25 16:00:00          91 F                wmoUnit:degC       19.4
 2 2023-07-25 17:00:00          91 F                wmoUnit:degC       19.4
 3 2023-07-25 18:00:00          89 F                wmoUnit:degC       19.4
 4 2023-07-25 19:00:00          87 F                wmoUnit:degC       19.4
 5 2023-07-25 20:00:00          84 F                wmoUnit:degC       20  
 6 2023-07-25 21:00:00          80 F                wmoUnit:degC       20.6
 7 2023-07-25 22:00:00          78 F                wmoUnit:degC       20.6
 8 2023-07-25 23:00:00          77 F                wmoUnit:degC       20.6
 9 2023-07-26 00:00:00          75 F                wmoUnit:degC       20.6
10 2023-07-26 01:00:00          74 F                wmoUnit:degC       20.6
# ℹ 146 more rows
# ℹ 3 more variables: dew_point_F <dbl>, precip_unit <chr>, precip <int>
…
